…
``` r
lm_results <-
  lm_fit %>%
  collect_predictions()

# view results
lm_results
```

    ## # A tibble: 430 x 5
    ##    id                 .pred  .row  price .config             
    ##    <chr>              <dbl> <int>  <int> <chr>               
    ##  1 train/test split 224742.    11 325000 Preprocessor1_Model1
    ##  2 train/test split 200103.    12 120000 Preprocessor1_Model1
    ##  3 train/test split 128863.    20  87500 Preprocessor1_Model1
    ##  4 train/test split 119169.    21 112000 Preprocessor1_Model1
    ##  5 train/test split 342865.    29 457000 Preprocessor1_Model1
    ##  6 train/test split 199509.    34 227000 Preprocessor1_Model1
    ##  7 train/test split 228159.    36 169900 Preprocessor1_Model1
    ##  8 train/test split 174841.    43 150000 Preprocessor1_Model1
    ##  9 train/test split 261218.    44 234900 Preprocessor1_Model1
    ## 10 train/test split 296332.    45 279550 Preprocessor1_Model1
    ## # … with 420 more rows
…
``` r
# predictions
knn_results <- 
  knn_fit %>% 
  collect_predictions()

# view results
knn_results
```

    ## # A tibble: 430 x 5
    ##    id                 .pred  .row  price .config             
    ##    <chr>              <dbl> <int>  <int> <chr>               
    ##  1 train/test split 191651.    11 325000 Preprocessor1_Model1
    ##  2 train/test split 165831.    12 120000 Preprocessor1_Model1
    ##  3 train/test split 155146.    20  87500 Preprocessor1_Model1
    ##  4 train/test split 157185.    21 112000 Preprocessor1_Model1
    ##  5 train/test split 336896.    29 457000 Preprocessor1_Model1
    ##  6 train/test split 157869.    34 227000 Preprocessor1_Model1
    ##  7 train/test split 251174.    36 169900 Preprocessor1_Model1
    ##  8 train/test split 178011.    43 150000 Preprocessor1_Model1
    ##  9 train/test split 246459.    44 234900 Preprocessor1_Model1
    ## 10 train/test split 304254.    45 279550 Preprocessor1_Model1
    ## # … with 420 more rows
…
``` r
# predictions
log_results <- 
  log_fit %>% 
  collect_predictions()

# view results
log_results
```

    ## # A tibble: 250 x 7
    ##    id               .pred_0 .pred_1  .row .pred_class Default .config           
    ##    <chr>              <dbl>   <dbl> <int> <fct>       <fct>   <chr>             
    ##  1 train/test split   0.858  0.142      9 0           0       Preprocessor1_Mod…
    ##  2 train/test split   0.605  0.395     11 0           1       Preprocessor1_Mod…
    ##  3 train/test split   0.857  0.143     17 0           0       Preprocessor1_Mod…
    ##  4 train/test split   0.846  0.154     22 0           0       Preprocessor1_Mod…
    ##  5 train/test split   0.941  0.0594    23 0           0       Preprocessor1_Mod…
    ##  6 train/test split   0.947  0.0533    25 0           0       Preprocessor1_Mod…
    ##  7 train/test split   0.911  0.0891    44 0           0       Preprocessor1_Mod…
    ##  8 train/test split   0.862  0.138     45 0           1       Preprocessor1_Mod…
    ##  9 train/test split   0.816  0.184     49 0           0       Preprocessor1_Mod…
    ## 10 train/test split   0.637  0.363     51 0           0       Preprocessor1_Mod…
    ## # … with 240 more rows
…
